[{
        "id": 74,
        "titr": null,
        "fio": "Тест",
        "img": [
            1215715,
            1214385,
            1215715
        ],
        "city": "Питер",
        "video": [
            1215716
        ],
        "approve_date": "30.04.2019 13:03",
        "description": " тест"
    },
    {
        "id": 72,
        "titr": null,
        "fio": "тест-тест",
        "img": [],
        "city": "ацуа",
        "video": [
            1215468
        ],
        "approve_date": "29.04.2019 17:46",
        "description": " egergerger"
    },
    {
        "id": 55,
        "titr": null,
        "fio": "Пупович Петр",
        "img": [],
        "city": "Москва",
        "video": [
            1215288,
            1215268,
            1214289
        ],
        "approve_date": "29.04.2019 13:07",
        "description": "Всем привет!<br />\nНачинаем наше чтения письма!"
    },
    {
        "id": 31,
        "titr": null,
        "fio": "Андрей",
        "img": [
            1214385
        ],
        "city": "Санкт-Петербург",
        "video": [],
        "approve_date": "26.04.2019 13:50",
        "description": "рываыолварл<br />\n<br />\nывоаывоад"
    },
    {
        "id": 2,
        "titr": null,
        "fio": "Петров",
        "img": [
            1214310
        ],
        "city": "Бабруйск",
        "video": [
            1205063,
            1214289
        ],
        "approve_date": "26.04.2019 13:50",
        "description": "Какой-то текст<br />\n<br />\nКакой-то текст с новой строчки"
    },
    {
        "id": 85,
        "titr": null,
        "fio": "Пупович Петр 2",
        "img": [],
        "city": "Москва",
        "video": [
            1215288,
            1215268,
            1214289
        ],
        "approve_date": "29.04.2019 13:07",
        "description": "Всем привет!<br />\nНачинаем наше чтения письма!"
    },
    {
        "id": 222,
        "titr": null,
        "fio": "Петров 2",
        "img": [
            1214310,
            1214310
        ],
        "city": "Бабруйск",
        "video": [
            1205063,
            1214289
        ],
        "approve_date": "26.04.2019 13:50",
        "description": "Какой-то текст<br />\n<br />\nКакой-то текст с новой строчки. Lorem ipsum dolor sit amet, consectetur adipisicing elit, sed do eiusmod tempor incididunt ut labore et dolore magna aliqua. Ut enim ad minim veniam, quis nostrud exercitation ullamco laboris nisi ut aliquip ex ea commodo consequat. Duis aute irure dolor in reprehenderit in voluptate velit esse cillum dolore eu fugiat nulla pariatur. Excepteur sint occaecat cupidatat non proident, sunt in culpa qui officia deserunt mollit anim id est laborum. Lorem ipsum dolor sit amet, consectetur adipisicing elit, sed do eiusmod tempor incididunt ut labore et dolore magna aliqua. Ut enim ad minim veniam, quis nostrud exercitation ullamco laboris nisi ut aliquip ex ea commodo consequat. Duis aute irure dolor in reprehenderit in voluptate velit esse cillum dolore eu fugiat nulla pariatur. Excepteur sint occaecat cupidatat non proident, sunt in culpa qui officia deserunt mollit anim id est laborum. Lorem ipsum dolor sit amet, consectetur adipisicing elit, sed do eiusmod tempor incididunt ut labore et dolore magna aliqua. Ut enim ad minim veniam, quis nostrud exercitation ullamco laboris nisi ut aliquip ex ea commodo consequat. Duis aute irure dolor in reprehenderit in voluptate velit esse cillum dolore eu fugiat nulla pariatur. Excepteur sint occaecat cupidatat non proident, sunt in culpa qui officia deserunt mollit anim id est laborum. Lorem ipsum dolor sit amet, consectetur adipisicing elit, sed do eiusmod tempor incididunt ut labore et dolore magna aliqua. Ut enim ad minim veniam, quis nostrud exercitation ullamco laboris nisi ut aliquip ex ea commodo consequat. Duis aute irure dolor in reprehenderit in voluptate velit esse cillum dolore eu fugiat nulla pariatur. Excepteur sint occaecat cupidatat non proident, sunt in culpa qui officia deserunt mollit anim id est laborum.Lorem ipsum dolor sit amet, consectetur adipisicing elit, sed do eiusmod tempor incididunt ut labore et dolore magna aliqua. Ut enim ad minim veniam, quis nostrud exercitation ullamco laboris nisi ut aliquip ex ea commodo consequat. Duis aute irure dolor in reprehenderit in voluptate velit esse cillum dolore eu fugiat nulla pariatur. Excepteur sint occaecat cupidatat non proident, sunt in culpa qui officia deserunt mollit anim id est laborum.lorem"
    },
    {
            "id": 774,
            "titr": null,
            "fio": "Тест 2",
            "img": [
                1215715,
                1214385,
                1215715
            ],
            "city": "Питер",
            "video": [
                1215716
            ],
            "approve_date": "30.04.2019 13:03",
            "description": " тест"
    }
]
